…
``` r
#  total ads has more relationship with converted rate

# Get the information of how many converted under the total ads and the test group
M_TTADS_TTCONV<- M_num %>%
  group_by(`total ads`, test_group_num) %>% 
  reframe(total_converted = sum(converted_num)) %>% 
  arrange(desc(`total ads`))
M_Final<- M_TTADS_TTCONV%>% 
  group_by(`total ads`) %>% 
  filter(n()>1)  ## get the data that has records both AD and PSA
M_Final
```

    ## # A tibble: 692 × 3
    ## # Groups:   total ads [346]
    ##    `total ads` test_group_num total_converted
    ##          <dbl>          <dbl>           <dbl>
    ##  1         907              0               0
    ##  2         907              1               1
    ##  3         727              0               0
    ##  4         727              1               1
    ##  5         646              0               0
    ##  6         646              1               1
    ##  7         621              0               0
    ##  8         621              1               0
    ##  9         563              0               1
    ## 10         563              1               0
    ## # ℹ 682 more rows
…
